Bosch Data

```
> library(readr)
> train_numeric <- read_csv("train_numeric.csv")
> train_numeric

# A tibble: 1,183,747 x 970
      Id L0_S0_F0 L0_S0_F2 L0_S0_F4 L0_S0_F6 L0_S0_F8 L0_S0_F10 L0_S0_F12 L0_S0_F14 L0_S0_F16 L0_S0_F18
   <int>    <dbl>    <dbl>    <dbl>    <dbl>    <dbl>     <dbl>     <dbl>     <dbl>     <dbl>     <dbl>
1      4    0.030   -0.034   -0.197   -0.179    0.118     0.116    -0.015    -0.032     0.020     0.083
2      6       NA       NA       NA       NA       NA        NA        NA        NA        NA        NA
3      7    0.088    0.086    0.003   -0.052    0.161     0.025    -0.015    -0.072    -0.225    -0.147
4      9   -0.036   -0.064    0.294    0.330    0.074     0.161     0.022     0.128    -0.026    -0.046
5     11   -0.055   -0.086    0.294    0.330    0.118     0.025     0.030     0.168    -0.169    -0.099
6     13    0.003    0.019    0.294    0.312    0.031     0.161     0.022     0.088    -0.005    -0.003
7     14       NA       NA       NA       NA       NA        NA        NA        NA        NA        NA
8     16       NA       NA       NA       NA       NA        NA        NA        NA        NA        NA
9     18   -0.016   -0.041   -0.179   -0.179   -0.056     0.161    -0.007    -0.032    -0.082     0.163
10    23       NA       NA       NA       NA       NA        NA        NA        NA        NA        NA
# ... with 1,183,737 more rows, and 959 more variables: L0_S0_F20 <dbl>, L0_S0_F22 <dbl>,
#   L0_S1_F24 <dbl>, L0_S1_F28 <dbl>, L0_S2_F32 <dbl>, L0_S2_F36 <dbl>, L0_S2_F40 <dbl>,
#   L0_S2_F44 <dbl>, L0_S2_F48 <dbl>, L0_S2_F52 <int>, L0_S2_F56 <dbl>, L0_S2_F60 <dbl>,
#   L0_S2_F64 <dbl>, L0_S3_F68 <dbl>, L0_S3_F72 <dbl>, L0_S3_F76 <dbl>, L0_S3_F80 <dbl>,
#   L0_S3_F84 <dbl>, L0_S3_F88 <int>, L0_S3_F92 <dbl>, L0_S3_F96 <dbl>, L0_S3_F100 <dbl>,
#   L0_S4_F104 <dbl>, L0_S4_F109 <dbl>, L0_S5_F114 <dbl>, L0_S5_F116 <dbl>, L0_S6_F118 <dbl>,
#   L0_S6_F122 <dbl>, L0_S6_F132 <dbl>, L0_S7_F136 <dbl>, L0_S7_F138 <dbl>, L0_S7_F142 <dbl>,
#   L0_S8_F144 <dbl>, L0_S8_F146 <dbl>, L0_S8_F149 <dbl>, L0_S9_F155 <dbl>, L0_S9_F160 <dbl>,
#   L0_S9_F165 <dbl>, L0_S9_F170 <dbl>, L0_S9_F175 <dbl>, L0_S9_F180 <dbl>, L0_S9_F185 <dbl>,
…
```
> library(readr)
> train_categorical <- read_csv("train_categorical.csv")
> train_categorical
# A tibble: 1,183,747 x 2,141
      Id L0_S1_F25 L0_S1_F27 L0_S1_F29 L0_S1_F31 L0_S2_F33 L0_S2_F35 L0_S2_F37 L0_S2_F39 L0_S2_F41
   <int>     <chr>     <chr>     <chr>     <chr>     <chr>     <chr>     <chr>     <chr>     <chr>
1      4      <NA>      <NA>      <NA>      <NA>      <NA>      <NA>      <NA>      <NA>      <NA>
2      6      <NA>      <NA>      <NA>      <NA>      <NA>      <NA>      <NA>      <NA>      <NA>
3      7      <NA>      <NA>      <NA>      <NA>      <NA>      <NA>      <NA>      <NA>      <NA>
4      9      <NA>      <NA>      <NA>      <NA>      <NA>      <NA>      <NA>      <NA>      <NA>
5     11      <NA>      <NA>      <NA>      <NA>      <NA>      <NA>      <NA>      <NA>      <NA>
6     13      <NA>      <NA>      <NA>      <NA>      <NA>      <NA>      <NA>      <NA>      <NA>
7     14      <NA>      <NA>      <NA>      <NA>      <NA>      <NA>      <NA>      <NA>      <NA>
8     16      <NA>      <NA>      <NA>      <NA>      <NA>      <NA>      <NA>      <NA>      <NA>
9     18      <NA>      <NA>      <NA>      <NA>      <NA>      <NA>      <NA>      <NA>      <NA>
10    23      <NA>      <NA>      <NA>      <NA>      <NA>      <NA>      <NA>      <NA>      <NA>
# ... with 1,183,737 more rows, and 2131 more variables: L0_S2_F43 <chr>, L0_S2_F45 <chr>,
#   L0_S2_F47 <chr>, L0_S2_F49 <chr>, L0_S2_F51 <chr>, L0_S2_F53 <chr>, L0_S2_F55 <chr>,
#   L0_S2_F57 <chr>, L0_S2_F59 <chr>, L0_S2_F61 <chr>, L0_S2_F63 <chr>, L0_S2_F65 <chr>,
#   L0_S2_F67 <chr>, L0_S3_F69 <chr>, L0_S3_F71 <chr>, L0_S3_F73 <chr>, L0_S3_F75 <chr>,
#   L0_S3_F77 <chr>, L0_S3_F79 <chr>, L0_S3_F81 <chr>, L0_S3_F83 <chr>, L0_S3_F85 <chr>,
#   L0_S3_F87 <chr>, L0_S3_F89 <chr>, L0_S3_F91 <chr>, L0_S3_F93 <chr>, L0_S3_F95 <chr>,
#   L0_S3_F97 <chr>, L0_S3_F99 <chr>, L0_S3_F101 <chr>, L0_S3_F103 <chr>, L0_S4_F105 <chr>,
#   L0_S4_F107 <chr>, L0_S4_F108 <chr>, L0_S4_F110 <chr>, L0_S4_F112 <chr>, L0_S4_F113 <chr>,
#   L0_S6_F119 <chr>, L0_S6_F121 <chr>, L0_S6_F123 <chr>, L0_S6_F125 <chr>, L0_S6_F126 <chr>,
…
